Sources/prueba.vcd
$date
	Tue Dec 16 23:36:39 2014
$end
$version
	Icarus Verilog
$end
$timescale
	1s
$end
$scope module tester $end
$var wire 15 ! oMantR [14:0] $end
$var wire 5 " oExpR [4:0] $end
$var reg 1 # clkExt $end
$var reg 1 $ clkNorm $end
$var reg 5 % iExp1 [4:0] $end
$var reg 5 & iExp2 [4:0] $end
$var reg 10 ' iMant1 [9:0] $end
$var reg 10 ( iMant2 [9:0] $end
$scope module mult1 $end
$var wire 1 # clkExt $end
$var wire 1 $ clkNorm $end
$var wire 5 ) iExp1 [4:0] $end
$var wire 5 * iExp2 [4:0] $end
$var wire 10 + iMant1 [9:0] $end
$var wire 10 , iMant2 [9:0] $end
$var wire 5 - oExpR [4:0] $end
$var wire 5 . q4 [4:0] $end
$var wire 19 / q3 [18:0] $end
$var wire 15 0 oMantR [14:0] $end
$var wire 19 1 MantisaPre [18:0] $end
$var wire 5 2 ExpPre [4:0] $end
$scope module renormalize $end
$var wire 1 # Clock $end
$var wire 1 $ clkNorm $end
$var wire 5 3 iExp [4:0] $end
$var wire 19 4 iVect [18:0] $end
$var wire 19 5 reMantReal0 [18:0] $end
$var wire 5 6 reExpReal0 [4:0] $end
$var wire 19 7 oMant [18:0] $end
$var wire 5 8 oExp [4:0] $end
$var wire 19 9 mantisaReal0 [18:0] $end
$var wire 5 : expReal0 [4:0] $end
$scope module muxExpoReal0 $end
$var wire 1 # a1 $end
$var wire 5 ; sel1 [4:0] $end
$var wire 5 < sel0 [4:0] $end
$var reg 5 = q0 [4:0] $end
$upscope $end
$scope module muxMantReal0 $end
$var wire 1 # a1 $end
$var wire 19 > sel1 [18:0] $end
$var wire 19 ? sel0 [18:0] $end
$var reg 19 @ q0 [18:0] $end
$upscope $end
$scope module normReal0 $end
$var wire 1 $ clkNorm $end
$var wire 1 A enable $end
$var wire 5 B exp [4:0] $end
$var wire 19 C vect [18:0] $end
$var reg 19 D q1 [18:0] $end
$var reg 5 E q2 [4:0] $end
$var reg 19 F q3 [18:0] $end
$var reg 5 G q4 [4:0] $end
$upscope $end
$upscope $end
$upscope $end
$upscope $end
$enddefinitions $end
#0
$dumpvars
bx G
b0xxxxxxxxxxxxxxxxxx F
bx E
bx D
bx C
bx B
1A
bx @
bx ?
b11111100111000000 >
bx =
bx <
b0 ;
bx :
bx 9
bx 8
b0xxxxxxxxxxxxxxxxxx 7
bx 6
bx 5
b11111100111000000 4
b0 3
b0 2
b11111100111000000 1
b0xxxxxxxxxxxxxx 0
b0xxxxxxxxxxxxxxxxxx /
bx .
bx -
b100010000 ,
b111011100 +
b11 *
b11101 )
b100010000 (
b111011100 '
b11 &
b11101 %
0$
0#
bx "
b0xxxxxxxxxxxxxx !
$end
#1
1$
#2
0$
#3
1$
#4
0$
#5
1$
#6
0$
#7
1$
#8
0$
#9
1$
#10
0$
#11
1$
#12
0$
#13
1$
#14
0$
#15
1$
#16
0$
#17
1$
#18
0$
#19
1$
#20
b0 :
b0 =
b0 B
b11111100111000000 9
b11111100111000000 @
b11111100111000000 C
0A
0$
1#
#21
1$
#22
0$
#23
1$
#24
0$
#25
1$
#26
0$
#27
1$
#28
0$
#29
1$
#30
0$
#31
1$
#32
0$
#33
1$
#34
0$
#35
1$
#36
0$
#37
1$
#38
0$
#39
1$
#40
b11111 :
b11111 =
b11111 B
b111111001110000000 9
b111111001110000000 @
b111111001110000000 C
b11111 6
b11111 <
b11111 E
b111111001110000000 5
b111111001110000000 ?
b111111001110000000 D
1A
0$
0#
b100010001 (
b100010001 ,
b11111111011001111 1
b11111111011001111 4
b11111111011001111 >
b111011111 '
b111011111 +
#41
1$
#42
b11110 :
b11110 =
b11110 B
b1111110011100000000 9
b1111110011100000000 @
b1111110011100000000 C
b11110 6
b11110 <
b11110 E
b1111110011100000000 5
b1111110011100000000 ?
b1111110011100000000 D
0$
#43
1$
#44
b11111100111000 !
b11111100111000 0
b11111 "
b11111 -
b11111 .
b11111 8
b11111 G
b111111001110000000 /
b111111001110000000 7
b111111001110000000 F
0$
#45
1$
#46
0$
#47
1$
#48
0$
#49
1$
#50
0$
#51
1$
#52
0$
#53
1$
#54
0$
#55
1$
#56
0$
#57
1$
#58
0$
#59
1$
#60
b0 :
b0 =
b0 B
b11111111011001111 9
b11111111011001111 @
b11111111011001111 C
0A
0$
1#
#61
1$
#62
0$
#63
1$
#64
0$
#65
1$
#66
0$
#67
1$
#68
0$
#69
1$
#70
0$
#71
1$
#72
0$
#73
1$
#74
0$
#75
1$
#76
0$
#77
1$
#78
0$
#79
1$
#80
b11111 :
b11111 =
b11111 B
b111111110110011110 9
b111111110110011110 @
b111111110110011110 C
b11111 6
b11111 <
b11111 E
b111111110110011110 5
b111111110110011110 ?
b111111110110011110 D
1A
0$
0#
b100010010 (
b100010010 ,
b100000001111100100 1
b100000001111100100 4
b100000001111100100 >
b111100010 '
b111100010 +
#81
1$
#82
b11110 :
b11110 =
b11110 B
b1111111101100111100 9
b1111111101100111100 @
b1111111101100111100 C
b11110 6
b11110 <
b11110 E
b1111111101100111100 5
b1111111101100111100 ?
b1111111101100111100 D
0$
#83
1$
#84
b11111111011001 !
b11111111011001 0
b111111110110011110 /
b111111110110011110 7
b111111110110011110 F
0$
#85
1$
#86
0$
#87
1$
#88
0$
#89
1$
#90
0$
#91
1$
#92
0$
#93
1$
#94
0$
#95
1$
#96
0$
#97
1$
#98
0$
#99
1$
#100
b0 :
b0 =
b0 B
b100000001111100100 9
b100000001111100100 @
b100000001111100100 C
0A
0$
1#
#101
1$
#102
0$
#103
1$
#104
0$
#105
1$
#106
0$
#107
1$
#108
0$
#109
1$
#110
0$
#111
1$
#112
0$
#113
1$
#114
0$
#115
1$
#116
0$
#117
1$
#118
0$
#119
1$
#120
b11111 :
b11111 =
b11111 B
b1000000011111001000 9
b1000000011111001000 @
b1000000011111001000 C
b11111 6
b11111 <
b11111 E
b1000000011111001000 5
b1000000011111001000 ?
b1000000011111001000 D
1A
0$
0#
b100010011 (
b100010011 ,
b100000100011111111 1
b100000100011111111 4
b100000100011111111 >
b111100101 '
b111100101 +
#121
1$
#122
b10000000111110 !
b10000000111110 0
b0 "
b0 -
b0 .
b0 8
b0 G
b100000001111100100 /
b100000001111100100 7
b100000001111100100 F
0$
#123
1$
#124
0$
#125
1$
#126
0$
#127
1$
#128
0$
#129
1$
#130
0$
#131
1$
#132
0$
#133
1$
#134
0$
#135
1$
#136
0$
#137
1$
#138
0$
#139
1$
#140
b0 :
b0 =
b0 B
b100000100011111111 9
b100000100011111111 @
b100000100011111111 C
0A
0$
1#
#141
1$
#142
0$
#143
1$
#144
0$
#145
1$
#146
0$
#147
1$
#148
0$
#149
1$
#150
0$
#151
1$
#152
0$
#153
1$
#154
0$
#155
1$
#156
0$
#157
1$
#158
0$
#159
1$
#160
b11111 :
b11111 =
b11111 B
b1000001000111111110 9
b1000001000111111110 @
b1000001000111111110 C
b1000001000111111110 5
b1000001000111111110 ?
b1000001000111111110 D
1A
0$
0#
b100010100 (
b100010100 ,
b100000111000100000 1
b100000111000100000 4
b100000111000100000 >
b111101000 '
b111101000 +
#161
1$
#162
b10000010001111 !
b10000010001111 0
b100000100011111111 /
b100000100011111111 7
b100000100011111111 F
0$
#163
1$
#164
0$
#165
1$
#166
0$
#167
1$
#168
0$
#169
1$
#170
0$
#171
1$
#172
0$
#173
1$
#174
0$
#175
1$
#176
0$
#177
1$
#178
0$
#179
1$
#180
b0 :
b0 =
b0 B
b100000111000100000 9
b100000111000100000 @
b100000111000100000 C
0A
0$
1#
#181
1$
#182
0$
#183
1$
#184
0$
#185
1$
#186
0$
#187
1$
#188
0$
#189
1$
#190
0$
#191
1$
#192
0$
#193
1$
#194
0$
#195
1$
#196
0$
#197
1$
#198
0$
#199
1$
#200
b11111 :
b11111 =
b11111 B
b1000001110001000000 9
b1000001110001000000 @
b1000001110001000000 C
b1000001110001000000 5
b1000001110001000000 ?
b1000001110001000000 D
1A
0$
0#
b100010101 (
b100010101 ,
b100001001101000111 1
b100001001101000111 4
b100001001101000111 >
b111101011 '
b111101011 +
